{
  "images" : [
    {
      "idiom" : "iphone",
      "filename" : "background-photo.jpg",
      "scale" : "1x"
    },
    {
      "idiom" : "iphone",
      "filename" : "background-photo@2x.jpg",
      "scale" : "2x"
    },
    {
      "idiom" : "iphone",
      "filename" : "background-photo@3x.jpg",
      "scale" : "3x"
    },
    {
      "idiom" : "ipad",
      "filename" : "background-photo~ipad.jpg",
      "scale" : "1x"
    },
    {
      "idiom" : "ipad",
      "filename" : "background-photo@2x~ipad.jpg",
      "scale" : "2x"
    }
  ],
  "info" : {
    "version" : 1,
    "author" : "xcode"
  }
}